Patterns of reef fish energy flow in a transitional zone
…
## # A tibble: 1 × 2
##   Quantile75    SD
##        <dbl> <dbl>
## 1      0.227 0.117

#Taiwan sites that are in high turnover units
global.taiwan %>%
  filter(Country == 'Taiwan' & Turn > quantile(global.taiwan$Turn, 0.75)) %>%
  distinct(SiteCode)

## # A tibble: 25 × 1
##    SiteCode  
##    <chr>     
##  1 Tiaoshi   
##  2 Leidashih 
##  3 Jialeshui 
##  4 Houbihu   
##  5 Dingbaisha
##  6 Dabaisha  
##  7 Gongguan  
##  8 Shilang   
##  9 Guiwan    
## 10 Chaikou   
## # ℹ 15 more rows
…
